wbuart32/trunk/rtl/rxuartlit/rxuartlit.sim/sim_1/behav/xsim/tb_rxuartlite_normal_only.vcd
$date
   Thu Jun  4 10:52:49 2026
$end

$version
  2025.2
  $dumpfile ("tb_rxuartlite_normal_only.vcd") 
$end

$timescale
  1ps
$end

$scope module tb_rxuartlite_normal_only $end
$var reg 1 ! i_clk $end
$var reg 1 " i_uart_rx $end
$var wire 1 # o_wr $end
$var wire 8 $ o_data [7:0] $end
$var integer 32 % errors [31:0] $end
$var integer 32 & wr_count [31:0] $end
$var reg 8 ' last_data [7:0] $end
$scope module dut $end
$var wire 1 ( i_clk $end
$var wire 1 ) i_uart_rx $end
$var reg 1 * o_wr $end
$var reg 8 + o_data [7:0] $end
$var wire 5 , half_baud [4:0] $end
$var reg 4 - state [3:0] $end
$var reg 5 . baud_counter [4:0] $end
$var reg 1 / zero_baud_counter $end
$var reg 1 0 q_uart $end
$var reg 1 1 qq_uart $end
$var reg 1 2 ck_uart $end
$var reg 5 3 chg_counter [4:0] $end
$var reg 1 4 half_baud_time $end
$var reg 8 5 data_reg [7:0] $end
$upscope $end
$scope task wait_posedges $end
$var integer 32 6 n [31:0] $end
$var integer 32 7 k [31:0] $end
$upscope $end
$scope task drive_bit_for_one_baud $end
$var reg 1 8 value $end
$var integer 32 9 k [31:0] $end
$upscope $end
$scope task send_uart_byte $end
$var reg 8 : value [7:0] $end
$var integer 32 ; i [31:0] $end
$upscope $end
$scope task check_received_byte $end
$var reg 8 < expected_data [7:0] $end
$upscope $end
$upscope $end
$enddefinitions $end

#0
$dumpvars
0!
1"
0#
b0 $
b0 %
b0 &
b0 '
0(
1)
0*
b0 +
b1000 ,
b1111 -
b0 .
1/
10
11
12
b11111 3
04
bx 5
b1010000 6
b0 7
x8
bx 9
bx :
bx ;
bx <
$end

#5000
1!
1(
b1xxxxxxx 5
b1 7

#10000
0!
0(

#15000
1!
1(
b11xxxxxx 5
b10 7

#20000
0!
0(

#25000
1!
1(
b111xxxxx 5
b11 7

#30000
0!
0(

#35000
1!
1(
b1111xxxx 5
b100 7

#40000
0!
0(

#45000
1!
1(
b11111xxx 5
b101 7

#50000
0!
0(

#55000
1!
1(
b111111xx 5
b110 7

#60000
0!
0(

#65000
1!
1(
b1111111x 5
b111 7

#70000
0!
0(

#75000
1!
1(
b11111111 5
b1000 7

#80000
0!
0(

#85000
1!
1(
b1001 7

#90000
0!
0(

#95000
1!
1(
b1010 7

#100000
0!
0(

#105000
1!
1(
b1011 7

#110000
0!
0(

#115000
1!
1(
b1100 7

#120000
0!
0(

#125000
1!
1(
b1101 7

#130000
0!
0(

#135000
1!
1(
b1110 7

#140000
0!
0(

#145000
1!
1(
b1111 7

#150000
0!
0(

#155000
1!
1(
b10000 7

#160000
0!
0(

#165000
1!
1(
b10001 7

#170000
0!
0(

#175000
1!
1(
b10010 7

#180000
0!
0(

#185000
1!
1(
b10011 7

#190000
0!
0(

#195000
1!
1(
b10100 7

#200000
0!
0(

#205000
1!
1(
b10101 7

#210000
0!
0(

#215000
1!
1(
b10110 7

#220000
0!
0(

#225000
1!
1(
b10111 7

#230000
0!
0(

#235000
1!
1(
b11000 7

#240000
0!
0(

#245000
1!
1(
b11001 7

#250000
0!
0(

#255000
1!
1(
b11010 7

#260000
0!
0(

#265000
1!
1(
b11011 7

#270000
0!
0(

#275000
1!
1(
b11100 7

#280000
0!
0(

#285000
1!
1(
b11101 7

#290000
0!
0(

#295000
1!
1(
b11110 7

#300000
0!
0(

#305000
1!
1(
b11111 7

#310000
0!
0(

#315000
1!
1(
b100000 7

#320000
0!
0(

#325000
1!
1(
b100001 7

#330000
0!
0(

#335000
1!
1(
b100010 7

#340000
0!
0(

#345000
1!
1(
b100011 7

#350000
0!
0(

#355000
1!
1(
b100100 7

#360000
0!
0(

#365000
1!
1(
b100101 7

#370000
0!
0(

#375000
1!
1(
b100110 7

#380000
0!
0(

#385000
1!
1(
b100111 7

#390000
0!
0(

#395000
1!
1(
b101000 7

#400000
0!
0(

#405000
1!
1(
b101001 7

#410000
0!
0(

#415000
1!
1(
b101010 7

#420000
0!
0(

#425000
1!
1(
b101011 7

#430000
0!
0(

#435000
1!
1(
b101100 7

#440000
0!
0(

#445000
1!
1(
b101101 7

#450000
0!
0(

#455000
1!
1(
b101110 7

#460000
0!
0(

#465000
1!
1(
b101111 7

#470000
0!
0(

#475000
1!
1(
b110000 7

#480000
0!
0(

#485000
1!
1(
b110001 7

#490000
0!
0(

#495000
1!
1(
b110010 7

#500000
0!
0(

#505000
1!
1(
b110011 7

#510000
0!
0(

#515000
1!
1(
b110100 7

#520000
0!
0(

#525000
1!
1(
b110101 7

#530000
0!
0(

#535000
1!
1(
b110110 7

#540000
0!
0(

#545000
1!
1(
b110111 7

#550000
0!
0(

#555000
1!
1(
b111000 7

#560000
0!
0(

#565000
1!
1(
b111001 7

#570000
0!
0(

#575000
1!
1(
b111010 7

#580000
0!
0(

#585000
1!
1(
b111011 7

#590000
0!
0(

#595000
1!
1(
b111100 7

#600000
0!
0(

#605000
1!
1(
b111101 7

#610000
0!
0(

#615000
1!
1(
b111110 7

#620000
0!
0(

#625000
1!
1(
b111111 7

#630000
0!
0(

#635000
1!
1(
b1000000 7

#640000
0!
0(

#645000
1!
1(
b1000001 7

#650000
0!
0(

#655000
1!
1(
b1000010 7

#660000
0!
0(

#665000
1!
1(
b1000011 7

#670000
0!
0(

#675000
1!
1(
b1000100 7

#680000
0!
0(

#685000
1!
1(
b1000101 7

#690000
0!
0(

#695000
1!
1(
b1000110 7

#700000
0!
0(

#705000
1!
1(
b1000111 7

#710000
0!
0(

#715000
1!
1(
b1001000 7

#720000
0!
0(

#725000
1!
1(
b1001001 7

#730000
0!
0(

#735000
1!
1(
b1001010 7

#740000
0!
0(

#745000
1!
1(
b1001011 7

#750000
0!
0(

#755000
1!
1(
b1001100 7

#760000
0!
0(

#765000
1!
1(
b1001101 7

#770000
0!
0(

#775000
1!
1(
b1001110 7

#780000
0!
0(

#785000
1!
1(
b1001111 7

#790000
0!
0(

#795000
1!
1(
b1010000 7
08
b1010101 :

#800000
0!
0"
0(
0)
b1 9

#805000
1!
1(
00

#810000
0!
0(
b10 9

#815000
1!
1(
01

#820000
0!
0(
b11 9

#825000
1!
1(
02
b0 3
b1111111 5

#830000
0!
0(
b100 9

#835000
1!
1(
b1 3
b111111 5

#840000
0!
0(
b101 9

#845000
1!
1(
b10 3
b11111 5

#850000
0!
0(
b110 9

#855000
1!
1(
b11 3
b1111 5

#860000
0!
0(
b111 9

#865000
1!
1(
b100 3
b111 5

#870000
0!
0(
b1000 9

#875000
1!
1(
b101 3
b11 5

#880000
0!
0(
b1001 9

#885000
1!
1(
b110 3
b1 5

#890000
0!
0(
b1010 9

#895000
1!
1(
b111 3
14
b0 5

#900000
0!
0(
b1011 9

#905000
1!
1(
b0 -
b1111 .
0/
b1000 3

#910000
0!
0(
b1100 9

#915000
1!
1(
b1110 .
b1001 3

#920000
0!
0(
b1101 9

#925000
1!
1(
b1101 .
b1010 3

#930000
0!
0(
b1110 9

#935000
1!
1(
b1100 .
b1011 3

#940000
0!
0(
b1111 9

#945000
1!
1(
b1011 .
b1100 3

#950000
0!
0(
18
b10000 9
b0 ;

#955000
1!
1(
b1010 .
b1101 3

#960000
0!
1"
0(
1)
b1 9

#965000
1!
1(
b1001 .
10
b1110 3

#970000
0!
0(
b10 9

#975000
1!
1(
b1000 .
11
b1111 3

#980000
0!
0(
b11 9

#985000
1!
1(
b111 .
12
b0 3

#990000
0!
0(
b100 9

#995000
1!
1(
b110 .
b1 3
04

#1000000
0!
0(
b101 9

#1005000
1!
1(
b101 .
b10 3

#1010000
0!
0(
b110 9

#1015000
1!
1(
b100 .
b11 3

#1020000
0!
0(
b111 9

#1025000
1!
1(
b11 .
b100 3

#1030000
0!
0(
b1000 9

#1035000
1!
1(
b10 .
b101 3

#1040000
0!
0(
b1001 9

#1045000
1!
1(
b1 .
b110 3

#1050000
0!
0(
b1010 9

#1055000
1!
1(
b0 .
1/
b111 3

#1060000
0!
0(
b1011 9

#1065000
1!
1(
b1 -
b1111 .
0/
b1000 3
b10000000 5

#1070000
0!
0(
b1100 9

#1075000
1!
1(
b1110 .
b1001 3

#1080000
0!
0(
b1101 9

#1085000
1!
1(
b1101 .
b1010 3

#1090000
0!
0(
b1110 9

#1095000
1!
1(
b1100 .
b1011 3

#1100000
0!
0(
b1111 9

#1105000
1!
1(
b1011 .
b1100 3

#1110000
0!
0(
08
b10000 9
b1 ;

#1115000
1!
1(
b1010 .
b1101 3

#1120000
0!
0"
0(
0)
b1 9

#1125000
1!
1(
b1001 .
00
b1110 3

#1130000
0!
0(
b10 9

#1135000
1!
1(
b1000 .
01
b1111 3

#1140000
0!
0(
b11 9

#1145000
1!
1(
b111 .
02
b0 3

#1150000
0!
0(
b100 9

#1155000
1!
1(
b110 .
b1 3

#1160000
0!
0(
b101 9

#1165000
1!
1(
b101 .
b10 3

#1170000
0!
0(
b110 9

#1175000
1!
1(
b100 .
b11 3

#1180000
0!
0(
b111 9

#1185000
1!
1(
b11 .
b100 3

#1190000
0!
0(
b1000 9

#1195000
1!
1(
b10 .
b101 3

#1200000
0!
0(
b1001 9

#1205000
1!
1(
b1 .
b110 3

#1210000
0!
0(
b1010 9

#1215000
1!
1(
b0 .
1/
b111 3
14

#1220000
0!
0(
b1011 9

#1225000
1!
1(
b10 -
b1111 .
0/
b1000 3
b1000000 5

#1230000
0!
0(
b1100 9

#1235000
1!
1(
b1110 .
b1001 3

#1240000
0!
0(
b1101 9

#1245000
1!
1(
b1101 .
b1010 3

#1250000
0!
0(
b1110 9

#1255000
1!
1(
b1100 .
b1011 3

#1260000
0!
0(
b1111 9

#1265000
1!
1(
b1011 .
b1100 3

#1270000
0!
0(
18
b10000 9
b10 ;

#1275000
1!
1(
b1010 .
b1101 3

#1280000
0!
1"
0(
1)
b1 9

#1285000
1!
1(
b1001 .
10
b1110 3

#1290000
0!
0(
b10 9

#1295000
1!
1(
b1000 .
11
b1111 3

#1300000
0!
0(
b11 9

#1305000
1!
1(
b111 .
12
b0 3

#1310000
0!
0(
b100 9

#1315000
1!
1(
b110 .
b1 3
04

#1320000
0!
0(
b101 9

#1325000
1!
1(
b101 .
b10 3

#1330000
0!
0(
b110 9

#1335000
1!
1(
b100 .
b11 3

#1340000
0!
0(
b111 9

#1345000
1!
1(
b11 .
b100 3

#1350000
0!
0(
b1000 9

#1355000
1!
1(
b10 .
b101 3

#1360000
0!
0(
b1001 9

#1365000
1!
1(
b1 .
b110 3

#1370000
0!
0(
b1010 9

#1375000
1!
1(
b0 .
1/
b111 3

#1380000
0!
0(
b1011 9

#1385000
1!
1(
b11 -
b1111 .
0/
b1000 3
b10100000 5

#1390000
0!
0(
b1100 9

#1395000
1!
1(
b1110 .
b1001 3

#1400000
0!
0(
b1101 9

#1405000
1!
1(
b1101 .
b1010 3

#1410000
0!
0(
b1110 9

#1415000
1!
1(
b1100 .
b1011 3

#1420000
0!
0(
b1111 9

#1425000
1!
1(
b1011 .
b1100 3

#1430000
0!
0(
08
b10000 9
b11 ;

#1435000
1!
1(
b1010 .
b1101 3

#1440000
0!
0"
0(
0)
b1 9

#1445000
1!
1(
b1001 .
00
b1110 3

#1450000
0!
0(
b10 9

#1455000
1!
1(
b1000 .
01
b1111 3

#1460000
0!
0(
b11 9

#1465000
1!
1(
b111 .
02
b0 3

#1470000
0!
0(
b100 9

#1475000
1!
1(
b110 .
b1 3

#1480000
0!
0(
b101 9

#1485000
1!
1(
b101 .
b10 3

#1490000
0!
0(
b110 9

#1495000
1!
1(
b100 .
b11 3

#1500000
0!
0(
b111 9

#1505000
1!
1(
b11 .
b100 3

#1510000
0!
0(
b1000 9

#1515000
1!
1(
b10 .
b101 3

#1520000
0!
0(
b1001 9

#1525000
1!
1(
b1 .
b110 3

#1530000
0!
0(
b1010 9

#1535000
1!
1(
b0 .
1/
b111 3
14

#1540000
0!
0(
b1011 9

#1545000
1!
1(
b100 -
b1111 .
0/
b1000 3
b1010000 5

#1550000
0!
0(
b1100 9

#1555000
1!
1(
b1110 .
b1001 3

#1560000
0!
0(
b1101 9

#1565000
1!
1(
b1101 .
b1010 3

#1570000
0!
0(
b1110 9

#1575000
1!
1(
b1100 .
b1011 3

#1580000
0!
0(
b1111 9

#1585000
1!
1(
b1011 .
b1100 3

#1590000
0!
0(
18
b10000 9
b100 ;

#1595000
1!
1(
b1010 .
b1101 3

#1600000
0!
1"
0(
1)
b1 9

#1605000
1!
1(
b1001 .
10
b1110 3

#1610000
0!
0(
b10 9

#1615000
1!
1(
b1000 .
11
b1111 3

#1620000
0!
0(
b11 9

#1625000
1!
1(
b111 .
12
b0 3

#1630000
0!
0(
b100 9

#1635000
1!
1(
b110 .
b1 3
04

#1640000
0!
0(
b101 9

#1645000
1!
1(
b101 .
b10 3

#1650000
0!
0(
b110 9

#1655000
1!
1(
b100 .
b11 3

#1660000
0!
0(
b111 9

#1665000
1!
1(
b11 .
b100 3

#1670000
0!
0(
b1000 9

#1675000
1!
1(
b10 .
b101 3

#1680000
0!
0(
b1001 9

#1685000
1!
1(
b1 .
b110 3

#1690000
0!
0(
b1010 9

#1695000
1!
1(
b0 .
1/
b111 3

#1700000
0!
0(
b1011 9

#1705000
1!
1(
b101 -
b1111 .
0/
b1000 3
b10101000 5

#1710000
0!
0(
b1100 9

#1715000
1!
1(
b1110 .
b1001 3

#1720000
0!
0(
b1101 9

#1725000
1!
1(
b1101 .
b1010 3

#1730000
0!
0(
b1110 9

#1735000
1!
1(
b1100 .
b1011 3

#1740000
0!
0(
b1111 9

#1745000
1!
1(
b1011 .
b1100 3

#1750000
0!
0(
08
b10000 9
b101 ;

#1755000
1!
1(
b1010 .
b1101 3

#1760000
0!
0"
0(
0)
b1 9

#1765000
1!
1(
b1001 .
00
b1110 3

#1770000
0!
0(
b10 9

#1775000
1!
1(
b1000 .
01
b1111 3

#1780000
0!
0(
b11 9

#1785000
1!
1(
b111 .
02
b0 3

#1790000
0!
0(
b100 9

#1795000
1!
1(
b110 .
b1 3

#1800000
0!
0(
b101 9

#1805000
1!
1(
b101 .
b10 3

#1810000
0!
0(
b110 9

#1815000
1!
1(
b100 .
b11 3

#1820000
0!
0(
b111 9

#1825000
1!
1(
b11 .
b100 3

#1830000
0!
0(
b1000 9

#1835000
1!
1(
b10 .
b101 3

#1840000
0!
0(
b1001 9

#1845000
1!
1(
b1 .
b110 3

#1850000
0!
0(
b1010 9

#1855000
1!
1(
b0 .
1/
b111 3
14

#1860000
0!
0(
b1011 9

#1865000
1!
1(
b110 -
b1111 .
0/
b1000 3
b1010100 5

#1870000
0!
0(
b1100 9

#1875000
1!
1(
b1110 .
b1001 3

#1880000
0!
0(
b1101 9

#1885000
1!
1(
b1101 .
b1010 3

#1890000
0!
0(
b1110 9

#1895000
1!
1(
b1100 .
b1011 3

#1900000
0!
0(
b1111 9

#1905000
1!
1(
b1011 .
b1100 3

#1910000
0!
0(
18
b10000 9
b110 ;

#1915000
1!
1(
b1010 .
b1101 3

#1920000
0!
1"
0(
1)
b1 9

#1925000
1!
1(
b1001 .
10
b1110 3

#1930000
0!
0(
b10 9

#1935000
1!
1(
b1000 .
11
b1111 3

#1940000
0!
0(
b11 9

#1945000
1!
1(
b111 .
12
b0 3

#1950000
0!
0(
b100 9

#1955000
1!
1(
b110 .
b1 3
04

#1960000
0!
0(
b101 9

#1965000
1!
1(
b101 .
b10 3

#1970000
0!
0(
b110 9

#1975000
1!
1(
b100 .
b11 3

#1980000
0!
0(
b111 9

#1985000
1!
1(
b11 .
b100 3

#1990000
0!
0(
b1000 9

#1995000
1!
1(
b10 .
b101 3

#2000000
0!
0(
b1001 9

#2005000
1!
1(
b1 .
b110 3

#2010000
0!
0(
b1010 9

#2015000
1!
1(
b0 .
1/
b111 3

#2020000
0!
0(
b1011 9

#2025000
1!
1(
b111 -
b1111 .
0/
b1000 3
b10101010 5

#2030000
0!
0(
b1100 9

#2035000
1!
1(
b1110 .
b1001 3

#2040000
0!
0(
b1101 9

#2045000
1!
1(
b1101 .
b1010 3

#2050000
0!
0(
b1110 9

#2055000
1!
1(
b1100 .
b1011 3

#2060000
0!
0(
b1111 9

#2065000
1!
1(
b1011 .
b1100 3

#2070000
0!
0(
08
b10000 9
b111 ;

#2075000
1!
1(
b1010 .
b1101 3

#2080000
0!
0"
0(
0)
b1 9

#2085000
1!
1(
b1001 .
00
b1110 3

#2090000
0!
0(
b10 9

#2095000
1!
1(
b1000 .
01
b1111 3

#2100000
0!
0(
b11 9

#2105000
1!
1(
b111 .
02
b0 3

#2110000
0!
0(
b100 9

#2115000
1!
1(
b110 .
b1 3

#2120000
0!
0(
b101 9

#2125000
1!
1(
b101 .
b10 3

#2130000
0!
0(
b110 9

#2135000
1!
1(
b100 .
b11 3

#2140000
0!
0(
b111 9

#2145000
1!
1(
b11 .
b100 3

#2150000
0!
0(
b1000 9

#2155000
1!
1(
b10 .
b101 3

#2160000
0!
0(
b1001 9

#2165000
1!
1(
b1 .
b110 3

#2170000
0!
0(
b1010 9

#2175000
1!
1(
b0 .
1/
b111 3
14

#2180000
0!
0(
b1011 9

#2185000
1!
1(
b1000 -
b1111 .
0/
b1000 3
b1010101 5

#2190000
0!
0(
b1100 9

#2195000
1!
1(
b1110 .
b1001 3

#2200000
0!
0(
b1101 9

#2205000
1!
1(
b1101 .
b1010 3

#2210000
0!
0(
b1110 9

#2215000
1!
1(
b1100 .
b1011 3

#2220000
0!
0(
b1111 9

#2225000
1!
1(
b1011 .
b1100 3

#2230000
0!
0(
18
b10000 9
b1000 ;

#2235000
1!
1(
b1010 .
b1101 3

#2240000
0!
1"
0(
1)
b1 9

#2245000
1!
1(
b1001 .
10
b1110 3

#2250000
0!
0(
b10 9

#2255000
1!
1(
b1000 .
11
b1111 3

#2260000
0!
0(
b11 9

#2265000
1!
1(
b111 .
12
b0 3

#2270000
0!
0(
b100 9

#2275000
1!
1(
b110 .
b1 3
04

#2280000
0!
0(
b101 9

#2285000
1!
1(
b101 .
b10 3

#2290000
0!
0(
b110 9

#2295000
1!
1(
b100 .
b11 3

#2300000
0!
0(
b111 9

#2305000
1!
1(
b11 .
b100 3

#2310000
0!
0(
b1000 9

#2315000
1!
1(
b10 .
b101 3

#2320000
0!
0(
b1001 9

#2325000
1!
1(
b1 .
b110 3

#2330000
0!
0(
b1010 9

#2335000
1!
1(
b0 .
1/
b111 3

#2340000
0!
0(
b1011 9

#2345000
1!
1#
b1010101 $
1(
1*
b1010101 +
b1001 -
b1000 3

#2350000
0!
0(
b1100 9

#2355000
1!
0#
b1 &
b1010101 '
1(
0*
b1111 -
b1001 3
b10101010 5

#2360000
0!
0(
b1101 9

#2365000
1!
1(
b1010 3
b11010101 5

#2370000
0!
0(
b1110 9

#2375000
1!
1(
b1011 3
b11101010 5

#2380000
0!
0(
b1111 9

#2385000
1!
1(
b1100 3
b11110101 5

#2390000
0!
0(
b100000 6
b0 7
b10000 9
b1010101 <

#2395000
1!
1(
b1101 3
b11111010 5
b1 7

#2400000
0!
0(

#2405000
1!
1(
b1110 3
b11111101 5
b10 7

#2410000
0!
0(

#2415000
1!
1(
b1111 3
b11111110 5
b11 7

#2420000
0!
0(

#2425000
1!
1(
b10000 3
b11111111 5
b100 7

#2430000
0!
0(

#2435000
1!
1(
b10001 3
b101 7

#2440000
0!
0(

#2445000
1!
1(
b10010 3
b110 7

#2450000
0!
0(

#2455000
1!
1(
b10011 3
b111 7

#2460000
0!
0(

#2465000
1!
1(
b10100 3
b1000 7

#2470000
0!
0(

#2475000
1!
1(
b10101 3
b1001 7

#2480000
0!
0(

#2485000
1!
1(
b10110 3
b1010 7

#2490000
0!
0(

#2495000
1!
1(
b10111 3
b1011 7

#2500000
0!
0(

#2505000
1!
1(
b11000 3
b1100 7

#2510000
0!
0(

#2515000
1!
1(
b11001 3
b1101 7

#2520000
0!
0(

#2525000
1!
1(
b11010 3
b1110 7

#2530000
0!
0(

#2535000
1!
1(
b11011 3
b1111 7

#2540000
0!
0(

#2545000
1!
1(
b11100 3
b10000 7

#2550000
0!
0(

#2555000
1!
1(
b11101 3
b10001 7

#2560000
0!
0(

#2565000
1!
1(
b11110 3
b10010 7

#2570000
0!
0(

#2575000
1!
1(
b11111 3
b10011 7

#2580000
0!
0(

#2585000
1!
1(
b10100 7

#2590000
0!
0(

#2595000
1!
1(
b10101 7

#2600000
0!
0(

#2605000
1!
1(
b10110 7

#2610000
0!
0(

#2615000
1!
1(
b10111 7

#2620000
0!
0(

#2625000
1!
1(
b11000 7

#2630000
0!
0(

#2635000
1!
1(
b11001 7

#2640000
0!
0(

#2645000
1!
1(
b11010 7

#2650000
0!
0(

#2655000
1!
1(
b11011 7

#2660000
0!
0(

#2665000
1!
1(
b11100 7

#2670000
0!
0(

#2675000
1!
1(
b11101 7

#2680000
0!
0(

#2685000
1!
1(
b11110 7

#2690000
0!
0(

#2695000
1!
1(
b11111 7

#2700000
0!
0(

#2705000
1!
1(
b100000 7
