wbuart32/trunk/rtl/rxuartlit/rxuartlit.sim/sim_1/behav/xsim/tb_rxuartlite_simple.vcd
$date
   Wed Jun  3 15:24:35 2026
$end

$version
  2025.2
  $dumpfile ("tb_rxuartlite_simple.vcd") 
$end

$timescale
  1ps
$end

$scope module tb_rxuartlite_simple $end
$var reg 1 ! i_clk $end
$var reg 1 " i_uart_rx $end
$var wire 1 # o_wr $end
$var wire 8 $ o_data [7:0] $end
$var integer 32 % errors [31:0] $end
$var integer 32 & wr_count [31:0] $end
$var reg 8 ' last_data [7:0] $end
$var integer 32 ( before_count [31:0] $end
$scope module dut $end
$var wire 1 ) i_clk $end
$var wire 1 * i_uart_rx $end
$var reg 1 + o_wr $end
$var reg 8 , o_data [7:0] $end
$var wire 5 - half_baud [4:0] $end
$var reg 4 . state [3:0] $end
$var reg 5 / baud_counter [4:0] $end
$var reg 1 0 zero_baud_counter $end
$var reg 1 1 q_uart $end
$var reg 1 2 qq_uart $end
$var reg 1 3 ck_uart $end
$var reg 5 4 chg_counter [4:0] $end
$var reg 1 5 half_baud_time $end
$var reg 8 6 data_reg [7:0] $end
$upscope $end
$scope task wait_posedges $end
$var integer 32 7 n [31:0] $end
$var integer 32 8 k [31:0] $end
$upscope $end
$scope task drive_bit_for_one_baud $end
$var reg 1 9 value $end
$var integer 32 : k [31:0] $end
$upscope $end
$scope task send_uart_byte $end
$var reg 8 ; value [7:0] $end
$var integer 32 < i [31:0] $end
$upscope $end
$scope task send_uart_byte_bad_stop $end
$var reg 8 = value [7:0] $end
$var integer 32 > i [31:0] $end
$upscope $end
$scope task expect_new_byte $end
$var reg 8 ? expected_data [7:0] $end
$var integer 32 @ old_wr_count [31:0] $end
$upscope $end
$scope task expect_no_new_byte $end
$var integer 32 A old_wr_count [31:0] $end
$upscope $end
$upscope $end
$enddefinitions $end

#0
$dumpvars
0!
1"
0#
b0 $
b0 %
b0 &
b0 '
bx (
0)
1*
0+
b0 ,
b1000 -
b1111 .
b0 /
10
11
12
13
b11111 4
05
bx 6
b1010000 7
b0 8
x9
bx :
bx ;
bx <
bx =
bx >
bx ?
bx @
bx A
$end

#5000
1!
1)
b1xxxxxxx 6
b1 8

#10000
0!
0)

#15000
1!
1)
b11xxxxxx 6
b10 8

#20000
0!
0)

#25000
1!
1)
b111xxxxx 6
b11 8

#30000
0!
0)

#35000
1!
1)
b1111xxxx 6
b100 8

#40000
0!
0)

#45000
1!
1)
b11111xxx 6
b101 8

#50000
0!
0)

#55000
1!
1)
b111111xx 6
b110 8

#60000
0!
0)

#65000
1!
1)
b1111111x 6
b111 8

#70000
0!
0)

#75000
1!
1)
b11111111 6
b1000 8

#80000
0!
0)

#85000
1!
1)
b1001 8

#90000
0!
0)

#95000
1!
1)
b1010 8

#100000
0!
0)

#105000
1!
1)
b1011 8

#110000
0!
0)

#115000
1!
1)
b1100 8

#120000
0!
0)

#125000
1!
1)
b1101 8

#130000
0!
0)

#135000
1!
1)
b1110 8

#140000
0!
0)

#145000
1!
1)
b1111 8

#150000
0!
0)

#155000
1!
1)
b10000 8

#160000
0!
0)

#165000
1!
1)
b10001 8

#170000
0!
0)

#175000
1!
1)
b10010 8

#180000
0!
0)

#185000
1!
1)
b10011 8

#190000
0!
0)

#195000
1!
1)
b10100 8

#200000
0!
0)

#205000
1!
1)
b10101 8

#210000
0!
0)

#215000
1!
1)
b10110 8

#220000
0!
0)

#225000
1!
1)
b10111 8

#230000
0!
0)

#235000
1!
1)
b11000 8

#240000
0!
0)

#245000
1!
1)
b11001 8

#250000
0!
0)

#255000
1!
1)
b11010 8

#260000
0!
0)

#265000
1!
1)
b11011 8

#270000
0!
0)

#275000
1!
1)
b11100 8

#280000
0!
0)

#285000
1!
1)
b11101 8

#290000
0!
0)

#295000
1!
1)
b11110 8

#300000
0!
0)

#305000
1!
1)
b11111 8

#310000
0!
0)

#315000
1!
1)
b100000 8

#320000
0!
0)

#325000
1!
1)
b100001 8

#330000
0!
0)

#335000
1!
1)
b100010 8

#340000
0!
0)

#345000
1!
1)
b100011 8

#350000
0!
0)

#355000
1!
1)
b100100 8

#360000
0!
0)

#365000
1!
1)
b100101 8

#370000
0!
0)

#375000
1!
1)
b100110 8

#380000
0!
0)

#385000
1!
1)
b100111 8

#390000
0!
0)

#395000
1!
1)
b101000 8

#400000
0!
0)

#405000
1!
1)
b101001 8

#410000
0!
0)

#415000
1!
1)
b101010 8

#420000
0!
0)

#425000
1!
1)
b101011 8

#430000
0!
0)

#435000
1!
1)
b101100 8

#440000
0!
0)

#445000
1!
1)
b101101 8

#450000
0!
0)

#455000
1!
1)
b101110 8

#460000
0!
0)

#465000
1!
1)
b101111 8

#470000
0!
0)

#475000
1!
1)
b110000 8

#480000
0!
0)

#485000
1!
1)
b110001 8

#490000
0!
0)

#495000
1!
1)
b110010 8

#500000
0!
0)

#505000
1!
1)
b110011 8

#510000
0!
0)

#515000
1!
1)
b110100 8

#520000
0!
0)

#525000
1!
1)
b110101 8

#530000
0!
0)

#535000
1!
1)
b110110 8

#540000
0!
0)

#545000
1!
1)
b110111 8

#550000
0!
0)

#555000
1!
1)
b111000 8

#560000
0!
0)

#565000
1!
1)
b111001 8

#570000
0!
0)

#575000
1!
1)
b111010 8

#580000
0!
0)

#585000
1!
1)
b111011 8

#590000
0!
0)

#595000
1!
1)
b111100 8

#600000
0!
0)

#605000
1!
1)
b111101 8

#610000
0!
0)

#615000
1!
1)
b111110 8

#620000
0!
0)

#625000
1!
1)
b111111 8

#630000
0!
0)

#635000
1!
1)
b1000000 8

#640000
0!
0)

#645000
1!
1)
b1000001 8

#650000
0!
0)

#655000
1!
1)
b1000010 8

#660000
0!
0)

#665000
1!
1)
b1000011 8

#670000
0!
0)

#675000
1!
1)
b1000100 8

#680000
0!
0)

#685000
1!
1)
b1000101 8

#690000
0!
0)

#695000
1!
1)
b1000110 8

#700000
0!
0)

#705000
1!
1)
b1000111 8

#710000
0!
0)

#715000
1!
1)
b1001000 8

#720000
0!
0)

#725000
1!
1)
b1001001 8

#730000
0!
0)

#735000
1!
1)
b1001010 8

#740000
0!
0)

#745000
1!
1)
b1001011 8

#750000
0!
0)

#755000
1!
1)
b1001100 8

#760000
0!
0)

#765000
1!
1)
b1001101 8

#770000
0!
0)

#775000
1!
1)
b1001110 8

#780000
0!
0)

#785000
1!
1)
b1001111 8

#790000
0!
0)

#795000
1!
b0 (
1)
b1010000 8
09
b1010101 ;

#800000
0!
0"
0)
0*
b0 :

#805000
1!
1)
01

#810000
0!
0)
b1 :

#815000
1!
1)
02

#820000
0!
0)
b10 :

#825000
1!
1)
03
b0 4
b1111111 6

#830000
0!
0)
b11 :

#835000
1!
1)
b1 4
b111111 6

#840000
0!
0)
b100 :

#845000
1!
1)
b10 4
b11111 6

#850000
0!
0)
b101 :

#855000
1!
1)
b11 4
b1111 6

#860000
0!
0)
b110 :

#865000
1!
1)
b100 4
b111 6

#870000
0!
0)
b111 :

#875000
1!
1)
b101 4
b11 6

#880000
0!
0)
b1000 :

#885000
1!
1)
b110 4
b1 6

#890000
0!
0)
b1001 :

#895000
1!
1)
b111 4
15
b0 6

#900000
0!
0)
b1010 :

#905000
1!
1)
b0 .
b1111 /
00
b1000 4

#910000
0!
0)
b1011 :

#915000
1!
1)
b1110 /
b1001 4

#920000
0!
0)
b1100 :

#925000
1!
1)
b1101 /
b1010 4

#930000
0!
0)
b1101 :

#935000
1!
1)
b1100 /
b1011 4

#940000
0!
0)
b1110 :

#945000
1!
1)
b1011 /
b1100 4

#950000
0!
0)
b1111 :

#955000
1!
1)
b1010 /
b1101 4

#960000
0!
0)
19
b10000 :
b0 <

#965000
1!
1)
b1001 /
b1110 4

#970000
0!
1"
0)
1*
b0 :

#975000
1!
1)
b1000 /
11
b1111 4

#980000
0!
0)
b1 :

#985000
1!
1)
b111 /
12
b10000 4

#990000
0!
0)
b10 :

#995000
1!
1)
b110 /
13
b0 4

#1000000
0!
0)
b11 :

#1005000
1!
1)
b101 /
b1 4
05

#1010000
0!
0)
b100 :

#1015000
1!
1)
b100 /
b10 4

#1020000
0!
0)
b101 :

#1025000
1!
1)
b11 /
b11 4

#1030000
0!
0)
b110 :

#1035000
1!
1)
b10 /
b100 4

#1040000
0!
0)
b111 :

#1045000
1!
1)
b1 /
b101 4

#1050000
0!
0)
b1000 :

#1055000
1!
1)
b0 /
10
b110 4

#1060000
0!
0)
b1001 :

#1065000
1!
1)
b1 .
b1111 /
00
b111 4
b10000000 6

#1070000
0!
0)
b1010 :

#1075000
1!
1)
b1110 /
b1000 4

#1080000
0!
0)
b1011 :

#1085000
1!
1)
b1101 /
b1001 4

#1090000
0!
0)
b1100 :

#1095000
1!
1)
b1100 /
b1010 4

#1100000
0!
0)
b1101 :

#1105000
1!
1)
b1011 /
b1011 4

#1110000
0!
0)
b1110 :

#1115000
1!
1)
b1010 /
b1100 4

#1120000
0!
0)
b1111 :

#1125000
1!
1)
b1001 /
b1101 4

#1130000
0!
0)
09
b10000 :
b1 <

#1135000
1!
1)
b1000 /
b1110 4

#1140000
0!
0"
0)
0*
b0 :

#1145000
1!
1)
b111 /
01
b1111 4

#1150000
0!
0)
b1 :

#1155000
1!
1)
b110 /
02
b10000 4

#1160000
0!
0)
b10 :

#1165000
1!
1)
b101 /
03
b0 4

#1170000
0!
0)
b11 :

#1175000
1!
1)
b100 /
b1 4

#1180000
0!
0)
b100 :

#1185000
1!
1)
b11 /
b10 4

#1190000
0!
0)
b101 :

#1195000
1!
1)
b10 /
b11 4

#1200000
0!
0)
b110 :

#1205000
1!
1)
b1 /
b100 4

#1210000
0!
0)
b111 :

#1215000
1!
1)
b0 /
10
b101 4

#1220000
0!
0)
b1000 :

#1225000
1!
1)
b10 .
b1111 /
00
b110 4
b1000000 6

#1230000
0!
0)
b1001 :

#1235000
1!
1)
b1110 /
b111 4
15

#1240000
0!
0)
b1010 :

#1245000
1!
1)
b1101 /
b1000 4

#1250000
0!
0)
b1011 :

#1255000
1!
1)
b1100 /
b1001 4

#1260000
0!
0)
b1100 :

#1265000
1!
1)
b1011 /
b1010 4

#1270000
0!
0)
b1101 :

#1275000
1!
1)
b1010 /
b1011 4

#1280000
0!
0)
b1110 :

#1285000
1!
1)
b1001 /
b1100 4

#1290000
0!
0)
b1111 :

#1295000
1!
1)
b1000 /
b1101 4

#1300000
0!
0)
19
b10000 :
b10 <

#1305000
1!
1)
b111 /
b1110 4

#1310000
0!
1"
0)
1*
b0 :

#1315000
1!
1)
b110 /
11
b1111 4

#1320000
0!
0)
b1 :

#1325000
1!
1)
b101 /
12
b10000 4

#1330000
0!
0)
b10 :

#1335000
1!
1)
b100 /
13
b0 4

#1340000
0!
0)
b11 :

#1345000
1!
1)
b11 /
b1 4
05

#1350000
0!
0)
b100 :

#1355000
1!
1)
b10 /
b10 4

#1360000
0!
0)
b101 :

#1365000
1!
1)
b1 /
b11 4

#1370000
0!
0)
b110 :

#1375000
1!
1)
b0 /
10
b100 4

#1380000
0!
0)
b111 :

#1385000
1!
1)
b11 .
b1111 /
00
b101 4
b10100000 6

#1390000
0!
0)
b1000 :

#1395000
1!
1)
b1110 /
b110 4

#1400000
0!
0)
b1001 :

#1405000
1!
1)
b1101 /
b111 4

#1410000
0!
0)
b1010 :

#1415000
1!
1)
b1100 /
b1000 4

#1420000
0!
0)
b1011 :

#1425000
1!
1)
b1011 /
b1001 4

#1430000
0!
0)
b1100 :

#1435000
1!
1)
b1010 /
b1010 4

#1440000
0!
0)
b1101 :

#1445000
1!
1)
b1001 /
b1011 4

#1450000
0!
0)
b1110 :

#1455000
1!
1)
b1000 /
b1100 4

#1460000
0!
0)
b1111 :

#1465000
1!
1)
b111 /
b1101 4

#1470000
0!
0)
09
b10000 :
b11 <

#1475000
1!
1)
b110 /
b1110 4

#1480000
0!
0"
0)
0*
b0 :

#1485000
1!
1)
b101 /
01
b1111 4

#1490000
0!
0)
b1 :

#1495000
1!
1)
b100 /
02
b10000 4

#1500000
0!
0)
b10 :

#1505000
1!
1)
b11 /
03
b0 4

#1510000
0!
0)
b11 :

#1515000
1!
1)
b10 /
b1 4

#1520000
0!
0)
b100 :

#1525000
1!
1)
b1 /
b10 4

#1530000
0!
0)
b101 :

#1535000
1!
1)
b0 /
10
b11 4

#1540000
0!
0)
b110 :

#1545000
1!
1)
b100 .
b1111 /
00
b100 4
b1010000 6

#1550000
0!
0)
b111 :

#1555000
1!
1)
b1110 /
b101 4

#1560000
0!
0)
b1000 :

#1565000
1!
1)
b1101 /
b110 4

#1570000
0!
0)
b1001 :

#1575000
1!
1)
b1100 /
b111 4
15

#1580000
0!
0)
b1010 :

#1585000
1!
1)
b1011 /
b1000 4

#1590000
0!
0)
b1011 :

#1595000
1!
1)
b1010 /
b1001 4

#1600000
0!
0)
b1100 :

#1605000
1!
1)
b1001 /
b1010 4

#1610000
0!
0)
b1101 :

#1615000
1!
1)
b1000 /
b1011 4

#1620000
0!
0)
b1110 :

#1625000
1!
1)
b111 /
b1100 4

#1630000
0!
0)
b1111 :

#1635000
1!
1)
b110 /
b1101 4

#1640000
0!
0)
19
b10000 :
b100 <

#1645000
1!
1)
b101 /
b1110 4

#1650000
0!
1"
0)
1*
b0 :

#1655000
1!
1)
b100 /
11
b1111 4

#1660000
0!
0)
b1 :

#1665000
1!
1)
b11 /
12
b10000 4

#1670000
0!
0)
b10 :

#1675000
1!
1)
b10 /
13
b0 4

#1680000
0!
0)
b11 :

#1685000
1!
1)
b1 /
b1 4
05

#1690000
0!
0)
b100 :

#1695000
1!
1)
b0 /
10
b10 4

#1700000
0!
0)
b101 :

#1705000
1!
1)
b101 .
b1111 /
00
b11 4
b10101000 6

#1710000
0!
0)
b110 :

#1715000
1!
1)
b1110 /
b100 4

#1720000
0!
0)
b111 :

#1725000
1!
1)
b1101 /
b101 4

#1730000
0!
0)
b1000 :

#1735000
1!
1)
b1100 /
b110 4

#1740000
0!
0)
b1001 :

#1745000
1!
1)
b1011 /
b111 4

#1750000
0!
0)
b1010 :

#1755000
1!
1)
b1010 /
b1000 4

#1760000
0!
0)
b1011 :

#1765000
1!
1)
b1001 /
b1001 4

#1770000
0!
0)
b1100 :

#1775000
1!
1)
b1000 /
b1010 4

#1780000
0!
0)
b1101 :

#1785000
1!
1)
b111 /
b1011 4

#1790000
0!
0)
b1110 :

#1795000
1!
1)
b110 /
b1100 4

#1800000
0!
0)
b1111 :

#1805000
1!
1)
b101 /
b1101 4

#1810000
0!
0)
09
b10000 :
b101 <

#1815000
1!
1)
b100 /
b1110 4

#1820000
0!
0"
0)
0*
b0 :

#1825000
1!
1)
b11 /
01
b1111 4

#1830000
0!
0)
b1 :

#1835000
1!
1)
b10 /
02
b10000 4

#1840000
0!
0)
b10 :

#1845000
1!
1)
b1 /
03
b0 4

#1850000
0!
0)
b11 :

#1855000
1!
1)
b0 /
10
b1 4

#1860000
0!
0)
b100 :

#1865000
1!
1)
b110 .
b1111 /
00
b10 4
b1010100 6

#1870000
0!
0)
b101 :

#1875000
1!
1)
b1110 /
b11 4

#1880000
0!
0)
b110 :

#1885000
1!
1)
b1101 /
b100 4

#1890000
0!
0)
b111 :

#1895000
1!
1)
b1100 /
b101 4

#1900000
0!
0)
b1000 :

#1905000
1!
1)
b1011 /
b110 4

#1910000
0!
0)
b1001 :

#1915000
1!
1)
b1010 /
b111 4
15

#1920000
0!
0)
b1010 :

#1925000
1!
1)
b1001 /
b1000 4

#1930000
0!
0)
b1011 :

#1935000
1!
1)
b1000 /
b1001 4

#1940000
0!
0)
b1100 :

#1945000
1!
1)
b111 /
b1010 4

#1950000
0!
0)
b1101 :

#1955000
1!
1)
b110 /
b1011 4

#1960000
0!
0)
b1110 :

#1965000
1!
1)
b101 /
b1100 4

#1970000
0!
0)
b1111 :

#1975000
1!
1)
b100 /
b1101 4

#1980000
0!
0)
19
b10000 :
b110 <

#1985000
1!
1)
b11 /
b1110 4

#1990000
0!
1"
0)
1*
b0 :

#1995000
1!
1)
b10 /
11
b1111 4

#2000000
0!
0)
b1 :

#2005000
1!
1)
b1 /
12
b10000 4

#2010000
0!
0)
b10 :

#2015000
1!
1)
b0 /
10
13
b0 4

#2020000
0!
0)
b11 :

#2025000
1!
1)
b111 .
b1111 /
00
b1 4
05
b10101010 6

#2030000
0!
0)
b100 :

#2035000
1!
1)
b1110 /
b10 4

#2040000
0!
0)
b101 :

#2045000
1!
1)
b1101 /
b11 4

#2050000
0!
0)
b110 :

#2055000
1!
1)
b1100 /
b100 4

#2060000
0!
0)
b111 :

#2065000
1!
1)
b1011 /
b101 4

#2070000
0!
0)
b1000 :

#2075000
1!
1)
b1010 /
b110 4

#2080000
0!
0)
b1001 :

#2085000
1!
1)
b1001 /
b111 4

#2090000
0!
0)
b1010 :

#2095000
1!
1)
b1000 /
b1000 4

#2100000
0!
0)
b1011 :

#2105000
1!
1)
b111 /
b1001 4

#2110000
0!
0)
b1100 :

#2115000
1!
1)
b110 /
b1010 4

#2120000
0!
0)
b1101 :

#2125000
1!
1)
b101 /
b1011 4

#2130000
0!
0)
b1110 :

#2135000
1!
1)
b100 /
b1100 4

#2140000
0!
0)
b1111 :

#2145000
1!
1)
b11 /
b1101 4

#2150000
0!
0)
09
b10000 :
b111 <

#2155000
1!
1)
b10 /
b1110 4

#2160000
0!
0"
0)
0*
b0 :

#2165000
1!
1)
b1 /
01
b1111 4

#2170000
0!
0)
b1 :

#2175000
1!
1)
b0 /
10
02
b10000 4

#2180000
0!
0)
b10 :

#2185000
1!
1)
b1000 .
b1111 /
00
03
b0 4
b1010101 6

#2190000
0!
0)
b11 :

#2195000
1!
1)
b1110 /
b1 4

#2200000
0!
0)
b100 :

#2205000
1!
1)
b1101 /
b10 4

#2210000
0!
0)
b101 :

#2215000
1!
1)
b1100 /
b11 4

#2220000
0!
0)
b110 :

#2225000
1!
1)
b1011 /
b100 4

#2230000
0!
0)
b111 :

#2235000
1!
1)
b1010 /
b101 4

#2240000
0!
0)
b1000 :

#2245000
1!
1)
b1001 /
b110 4

#2250000
0!
0)
b1001 :

#2255000
1!
1)
b1000 /
b111 4
15

#2260000
0!
0)
b1010 :

#2265000
1!
1)
b111 /
b1000 4

#2270000
0!
0)
b1011 :

#2275000
1!
1)
b110 /
b1001 4

#2280000
0!
0)
b1100 :

#2285000
1!
1)
b101 /
b1010 4

#2290000
0!
0)
b1101 :

#2295000
1!
1)
b100 /
b1011 4

#2300000
0!
0)
b1110 :

#2305000
1!
1)
b11 /
b1100 4

#2310000
0!
0)
b1111 :

#2315000
1!
1)
b10 /
b1101 4

#2320000
0!
0)
19
b10000 :
b1000 <

#2325000
1!
1)
b1 /
b1110 4

#2330000
0!
1"
0)
1*
b0 :

#2335000
1!
1)
b0 /
10
11
b1111 4

#2340000
0!
0)
b1 :

#2345000
1!
1)
b1001 .
12
b10000 4

#2350000
0!
0)
b10 :

#2355000
1!
1)
13
b0 4
b10101010 6

#2360000
0!
0)
b11 :

#2365000
1!
1)
b1111 .
b1 4
05
b11010101 6

#2370000
0!
0)
b100 :

#2375000
1!
1)
b10 4
b11101010 6

#2380000
0!
0)
b101 :

#2385000
1!
1)
b11 4
b11110101 6

#2390000
0!
0)
b110 :

#2395000
1!
1)
b100 4
b11111010 6

#2400000
0!
0)
b111 :

#2405000
1!
1)
b101 4
b11111101 6

#2410000
0!
0)
b1000 :

#2415000
1!
1)
b110 4
b11111110 6

#2420000
0!
0)
b1001 :

#2425000
1!
1)
b111 4
b11111111 6

#2430000
0!
0)
b1010 :

#2435000
1!
1)
b1000 4

#2440000
0!
0)
b1011 :

#2445000
1!
1)
b1001 4

#2450000
0!
0)
b1100 :

#2455000
1!
1)
b1010 4

#2460000
0!
0)
b1101 :

#2465000
1!
1)
b1011 4

#2470000
0!
0)
b1110 :

#2475000
1!
1)
b1100 4

#2480000
0!
0)
b1111 :

#2485000
1!
1)
b1101 4

#2490000
0!
0)
b100000 7
b0 8
b10000 :
b1010101 ?
b0 @

#2495000
1!
1)
b1110 4
b1 8

#2500000
0!
0)

#2505000
1!
1)
b1111 4
b10 8

#2510000
0!
0)

#2515000
1!
1)
b10000 4
b11 8

#2520000
0!
0)

#2525000
1!
1)
b10001 4
b100 8

#2530000
0!
0)

#2535000
1!
1)
b10010 4
b101 8

#2540000
0!
0)

#2545000
1!
1)
b10011 4
b110 8

#2550000
0!
0)

#2555000
1!
1)
b10100 4
b111 8

#2560000
0!
0)

#2565000
1!
1)
b10101 4
b1000 8

#2570000
0!
0)

#2575000
1!
1)
b10110 4
b1001 8

#2580000
0!
0)

#2585000
1!
1)
b10111 4
b1010 8

#2590000
0!
0)

#2595000
1!
1)
b11000 4
b1011 8

#2600000
0!
0)

#2605000
1!
1)
b11001 4
b1100 8

#2610000
0!
0)

#2615000
1!
1)
b11010 4
b1101 8

#2620000
0!
0)

#2625000
1!
1)
b11011 4
b1110 8

#2630000
0!
0)

#2635000
1!
1)
b11100 4
b1111 8

#2640000
0!
0)

#2645000
1!
1)
b11101 4
b10000 8

#2650000
0!
0)

#2655000
1!
1)
b11110 4
b10001 8

#2660000
0!
0)

#2665000
1!
1)
b11111 4
b10010 8

#2670000
0!
0)

#2675000
1!
1)
b10011 8

#2680000
0!
0)

#2685000
1!
1)
b10100 8

#2690000
0!
0)

#2695000
1!
1)
b10101 8

#2700000
0!
0)

#2705000
1!
1)
b10110 8

#2710000
0!
0)

#2715000
1!
1)
b10111 8

#2720000
0!
0)

#2725000
1!
1)
b11000 8

#2730000
0!
0)

#2735000
1!
1)
b11001 8

#2740000
0!
0)

#2745000
1!
1)
b11010 8

#2750000
0!
0)

#2755000
1!
1)
b11011 8

#2760000
0!
0)

#2765000
1!
1)
b11100 8

#2770000
0!
0)

#2775000
1!
1)
b11101 8

#2780000
0!
0)

#2785000
1!
1)
b11110 8

#2790000
0!
0)

#2795000
1!
1)
b11111 8

#2800000
0!
0)

#2805000
1!
b10 %
1)
b100000 8
09
b111100 =

#2810000
0!
0"
0)
0*
b0 :

#2815000
1!
1)
01

#2820000
0!
0)
b1 :

#2825000
1!
1)
02

#2830000
0!
0)
b10 :

#2835000
1!
1)
03
b0 4
b1111111 6

#2840000
0!
0)
b11 :

#2845000
1!
1)
b1 4
b111111 6

#2850000
0!
0)
b100 :

#2855000
1!
1)
b10 4
b11111 6

#2860000
0!
0)
b101 :

#2865000
1!
1)
b11 4
b1111 6

#2870000
0!
0)
b110 :

#2875000
1!
1)
b100 4
b111 6

#2880000
0!
0)
b111 :

#2885000
1!
1)
b101 4
b11 6

#2890000
0!
0)
b1000 :

#2895000
1!
1)
b110 4
b1 6

#2900000
0!
0)
b1001 :

#2905000
1!
1)
b111 4
15
b0 6

#2910000
0!
0)
b1010 :

#2915000
1!
1)
b0 .
b1111 /
00
b1000 4

#2920000
0!
0)
b1011 :

#2925000
1!
1)
b1110 /
b1001 4

#2930000
0!
0)
b1100 :

#2935000
1!
1)
b1101 /
b1010 4

#2940000
0!
0)
b1101 :

#2945000
1!
1)
b1100 /
b1011 4

#2950000
0!
0)
b1110 :

#2955000
1!
1)
b1011 /
b1100 4

#2960000
0!
0)
b1111 :

#2965000
1!
1)
b1010 /
b1101 4

#2970000
0!
0)
b10000 :
b0 >

#2975000
1!
1)
b1001 /
b1110 4

#2980000
0!
0)
b0 :

#2985000
1!
1)
b1000 /
b1111 4

#2990000
0!
0)
b1 :

#2995000
1!
1)
b111 /
b10000 4

#3000000
0!
0)
b10 :

#3005000
1!
1)
b110 /
b10001 4

#3010000
0!
0)
b11 :

#3015000
1!
1)
b101 /
b10010 4

#3020000
0!
0)
b100 :

#3025000
1!
1)
b100 /
b10011 4

#3030000
0!
0)
b101 :

#3035000
1!
1)
b11 /
b10100 4

#3040000
0!
0)
b110 :

#3045000
1!
1)
b10 /
b10101 4

#3050000
0!
0)
b111 :

#3055000
1!
1)
b1 /
b10110 4

#3060000
0!
0)
b1000 :

#3065000
1!
1)
b0 /
10
b10111 4

#3070000
0!
0)
b1001 :

#3075000
1!
1)
b1 .
b1111 /
00
b11000 4

#3080000
0!
0)
b1010 :

#3085000
1!
1)
b1110 /
b11001 4

#3090000
0!
0)
b1011 :

#3095000
1!
1)
b1101 /
b11010 4

#3100000
0!
0)
b1100 :

#3105000
1!
1)
b1100 /
b11011 4

#3110000
0!
0)
b1101 :

#3115000
1!
1)
b1011 /
b11100 4

#3120000
0!
0)
b1110 :

#3125000
1!
1)
b1010 /
b11101 4

#3130000
0!
0)
b1111 :

#3135000
1!
1)
b1001 /
b11110 4

#3140000
0!
0)
b10000 :
b1 >

#3145000
1!
1)
b1000 /
b11111 4

#3150000
0!
0)
b0 :

#3155000
1!
1)
b111 /

#3160000
0!
0)
b1 :

#3165000
1!
1)
b110 /

#3170000
0!
0)
b10 :

#3175000
1!
1)
b101 /

#3180000
0!
0)
b11 :

#3185000
1!
1)
b100 /

#3190000
0!
0)
b100 :

#3195000
1!
1)
b11 /

#3200000
0!
0)
b101 :

#3205000
1!
1)
b10 /

#3210000
0!
0)
b110 :

#3215000
1!
1)
b1 /

#3220000
0!
0)
b111 :

#3225000
1!
1)
b0 /
10

#3230000
0!
0)
b1000 :

#3235000
1!
1)
b10 .
b1111 /
00

#3240000
0!
0)
b1001 :

#3245000
1!
1)
b1110 /

#3250000
0!
0)
b1010 :

#3255000
1!
1)
b1101 /

#3260000
0!
0)
b1011 :

#3265000
1!
1)
b1100 /

#3270000
0!
0)
b1100 :

#3275000
1!
1)
b1011 /

#3280000
0!
0)
b1101 :

#3285000
1!
1)
b1010 /

#3290000
0!
0)
b1110 :

#3295000
1!
1)
b1001 /

#3300000
0!
0)
b1111 :

#3305000
1!
1)
b1000 /

#3310000
0!
0)
19
b10000 :
b10 >

#3315000
1!
1)
b111 /

#3320000
0!
1"
0)
1*
b0 :

#3325000
1!
1)
b110 /
11

#3330000
0!
0)
b1 :

#3335000
1!
1)
b101 /
12

#3340000
0!
0)
b10 :

#3345000
1!
1)
b100 /
13
b0 4

#3350000
0!
0)
b11 :

#3355000
1!
1)
b11 /
b1 4
05

#3360000
0!
0)
b100 :

#3365000
1!
1)
b10 /
b10 4

#3370000
0!
0)
b101 :

#3375000
1!
1)
b1 /
b11 4

#3380000
0!
0)
b110 :

#3385000
1!
1)
b0 /
10
b100 4

#3390000
0!
0)
b111 :

#3395000
1!
1)
b11 .
b1111 /
00
b101 4
b10000000 6

#3400000
0!
0)
b1000 :

#3405000
1!
1)
b1110 /
b110 4

#3410000
0!
0)
b1001 :

#3415000
1!
1)
b1101 /
b111 4

#3420000
0!
0)
b1010 :

#3425000
1!
1)
b1100 /
b1000 4

#3430000
0!
0)
b1011 :

#3435000
1!
1)
b1011 /
b1001 4

#3440000
0!
0)
b1100 :

#3445000
1!
1)
b1010 /
b1010 4

#3450000
0!
0)
b1101 :

#3455000
1!
1)
b1001 /
b1011 4

#3460000
0!
0)
b1110 :

#3465000
1!
1)
b1000 /
b1100 4

#3470000
0!
0)
b1111 :

#3475000
1!
1)
b111 /
b1101 4

#3480000
0!
0)
b10000 :
b11 >

#3485000
1!
1)
b110 /
b1110 4

#3490000
0!
0)
b0 :

#3495000
1!
1)
b101 /
b1111 4

#3500000
0!
0)
b1 :

#3505000
1!
1)
b100 /
b10000 4

#3510000
0!
0)
b10 :

#3515000
1!
1)
b11 /
b10001 4

#3520000
0!
0)
b11 :

#3525000
1!
1)
b10 /
b10010 4

#3530000
0!
0)
b100 :

#3535000
1!
1)
b1 /
b10011 4

#3540000
0!
0)
b101 :

#3545000
1!
1)
b0 /
10
b10100 4

#3550000
0!
0)
b110 :

#3555000
1!
1)
b100 .
b1111 /
00
b10101 4
b11000000 6

#3560000
0!
0)
b111 :

#3565000
1!
1)
b1110 /
b10110 4

#3570000
0!
0)
b1000 :

#3575000
1!
1)
b1101 /
b10111 4

#3580000
0!
0)
b1001 :

#3585000
1!
1)
b1100 /
b11000 4

#3590000
0!
0)
b1010 :

#3595000
1!
1)
b1011 /
b11001 4

#3600000
0!
0)
b1011 :

#3605000
1!
1)
b1010 /
b11010 4

#3610000
0!
0)
b1100 :

#3615000
1!
1)
b1001 /
b11011 4

#3620000
0!
0)
b1101 :

#3625000
1!
1)
b1000 /
b11100 4

#3630000
0!
0)
b1110 :

#3635000
1!
1)
b111 /
b11101 4

#3640000
0!
0)
b1111 :

#3645000
1!
1)
b110 /
b11110 4

#3650000
0!
0)
b10000 :
b100 >

#3655000
1!
1)
b101 /
b11111 4

#3660000
0!
0)
b0 :

#3665000
1!
1)
b100 /

#3670000
0!
0)
b1 :

#3675000
1!
1)
b11 /

#3680000
0!
0)
b10 :

#3685000
1!
1)
b10 /

#3690000
0!
0)
b11 :

#3695000
1!
1)
b1 /

#3700000
0!
0)
b100 :

#3705000
1!
1)
b0 /
10

#3710000
0!
0)
b101 :

#3715000
1!
1)
b101 .
b1111 /
00
b11100000 6

#3720000
0!
0)
b110 :

#3725000
1!
1)
b1110 /

#3730000
0!
0)
b111 :

#3735000
1!
1)
b1101 /

#3740000
0!
0)
b1000 :

#3745000
1!
1)
b1100 /

#3750000
0!
0)
b1001 :

#3755000
1!
1)
b1011 /

#3760000
0!
0)
b1010 :

#3765000
1!
1)
b1010 /

#3770000
0!
0)
b1011 :

#3775000
1!
1)
b1001 /

#3780000
0!
0)
b1100 :

#3785000
1!
1)
b1000 /

#3790000
0!
0)
b1101 :

#3795000
1!
1)
b111 /

#3800000
0!
0)
b1110 :

#3805000
1!
1)
b110 /

#3810000
0!
0)
b1111 :

#3815000
1!
1)
b101 /

#3820000
0!
0)
b10000 :
b101 >

#3825000
1!
1)
b100 /

#3830000
0!
0)
b0 :

#3835000
1!
1)
b11 /

#3840000
0!
0)
b1 :

#3845000
1!
1)
b10 /

