wbuart32/trunk/rtl/rxuartlit/rxuartlit.sim/sim_1/behav/xsim/tb_rxuartlite_normal_only_log.vcd
$date
   Thu Jun  4 11:13:31 2026
$end

$version
  2025.2
  $dumpfile ("tb_rxuartlite_normal_only_log.vcd") 
$end

$timescale
  1ps
$end

$scope module tb_rxuartlite_normal_only_log $end
$var reg 1 ! i_clk $end
$var reg 1 " i_uart_rx $end
$var wire 1 # o_wr $end
$var wire 8 $ o_data [7:0] $end
$var integer 32 % errors [31:0] $end
$var integer 32 & wr_count [31:0] $end
$var reg 8 ' last_data [7:0] $end
$var reg 4 ( prev_state [3:0] $end
$var reg 4 ) sample_state [3:0] $end
$var reg 1 * sample_bit $end
$scope module dut $end
$var wire 1 + i_clk $end
$var wire 1 , i_uart_rx $end
$var reg 1 - o_wr $end
$var reg 8 . o_data [7:0] $end
$var wire 5 / half_baud [4:0] $end
$var reg 4 0 state [3:0] $end
$var reg 5 1 baud_counter [4:0] $end
$var reg 1 2 zero_baud_counter $end
$var reg 1 3 q_uart $end
$var reg 1 4 qq_uart $end
$var reg 1 5 ck_uart $end
$var reg 5 6 chg_counter [4:0] $end
$var reg 1 7 half_baud_time $end
$var reg 8 8 data_reg [7:0] $end
$upscope $end
$scope task print_state $end
$var reg 4 9 s [3:0] $end
$upscope $end
$scope task wait_posedges $end
$var integer 32 : n [31:0] $end
$var integer 32 ; k [31:0] $end
$upscope $end
$scope task drive_bit_for_one_baud $end
$var reg 1 < value $end
$var integer 32 = kind [31:0] $end
$var integer 32 > bit_index [31:0] $end
$var integer 32 ? k [31:0] $end
$upscope $end
$scope task send_uart_byte $end
$var reg 8 @ value [7:0] $end
$var integer 32 A i [31:0] $end
$upscope $end
$scope task check_received_byte $end
$var reg 8 B expected_data [7:0] $end
$upscope $end
$upscope $end
$enddefinitions $end

#0
$dumpvars
0!
1"
0#
b0 $
b0 %
b0 &
b0 '
b1111 (
bx )
x*
0+
1,
0-
b0 .
b1000 /
b1111 0
b0 1
12
13
14
15
b11111 6
07
bx 8
b1111 9
b1010000 :
b0 ;
x<
bx =
bx >
bx ?
bx @
bx A
bx B
$end

#5000
1!
1+
b1xxxxxxx 8
b1 ;

#10000
0!
0+

#15000
1!
1+
b11xxxxxx 8
b10 ;

#20000
0!
0+

#25000
1!
1+
b111xxxxx 8
b11 ;

#30000
0!
0+

#35000
1!
1+
b1111xxxx 8
b100 ;

#40000
0!
0+

#45000
1!
1+
b11111xxx 8
b101 ;

#50000
0!
0+

#55000
1!
1+
b111111xx 8
b110 ;

#60000
0!
0+

#65000
1!
1+
b1111111x 8
b111 ;

#70000
0!
0+

#75000
1!
1+
b11111111 8
b1000 ;

#80000
0!
0+

#85000
1!
1+
b1001 ;

#90000
0!
0+

#95000
1!
1+
b1010 ;

#100000
0!
0+

#105000
1!
1+
b1011 ;

#110000
0!
0+

#115000
1!
1+
b1100 ;

#120000
0!
0+

#125000
1!
1+
b1101 ;

#130000
0!
0+

#135000
1!
1+
b1110 ;

#140000
0!
0+

#145000
1!
1+
b1111 ;

#150000
0!
0+

#155000
1!
1+
b10000 ;

#160000
0!
0+

#165000
1!
1+
b10001 ;

#170000
0!
0+

#175000
1!
1+
b10010 ;

#180000
0!
0+

#185000
1!
1+
b10011 ;

#190000
0!
0+

#195000
1!
1+
b10100 ;

#200000
0!
0+

#205000
1!
1+
b10101 ;

#210000
0!
0+

#215000
1!
1+
b10110 ;

#220000
0!
0+

#225000
1!
1+
b10111 ;

#230000
0!
0+

#235000
1!
1+
b11000 ;

#240000
0!
0+

#245000
1!
1+
b11001 ;

#250000
0!
0+

#255000
1!
1+
b11010 ;

#260000
0!
0+

#265000
1!
1+
b11011 ;

#270000
0!
0+

#275000
1!
1+
b11100 ;

#280000
0!
0+

#285000
1!
1+
b11101 ;

#290000
0!
0+

#295000
1!
1+
b11110 ;

#300000
0!
0+

#305000
1!
1+
b11111 ;

#310000
0!
0+

#315000
1!
1+
b100000 ;

#320000
0!
0+

#325000
1!
1+
b100001 ;

#330000
0!
0+

#335000
1!
1+
b100010 ;

#340000
0!
0+

#345000
1!
1+
b100011 ;

#350000
0!
0+

#355000
1!
1+
b100100 ;

#360000
0!
0+

#365000
1!
1+
b100101 ;

#370000
0!
0+

#375000
1!
1+
b100110 ;

#380000
0!
0+

#385000
1!
1+
b100111 ;

#390000
0!
0+

#395000
1!
1+
b101000 ;

#400000
0!
0+

#405000
1!
1+
b101001 ;

#410000
0!
0+

#415000
1!
1+
b101010 ;

#420000
0!
0+

#425000
1!
1+
b101011 ;

#430000
0!
0+

#435000
1!
1+
b101100 ;

#440000
0!
0+

#445000
1!
1+
b101101 ;

#450000
0!
0+

#455000
1!
1+
b101110 ;

#460000
0!
0+

#465000
1!
1+
b101111 ;

#470000
0!
0+

#475000
1!
1+
b110000 ;

#480000
0!
0+

#485000
1!
1+
b110001 ;

#490000
0!
0+

#495000
1!
1+
b110010 ;

#500000
0!
0+

#505000
1!
1+
b110011 ;

#510000
0!
0+

#515000
1!
1+
b110100 ;

#520000
0!
0+

#525000
1!
1+
b110101 ;

#530000
0!
0+

#535000
1!
1+
b110110 ;

#540000
0!
0+

#545000
1!
1+
b110111 ;

#550000
0!
0+

#555000
1!
1+
b111000 ;

#560000
0!
0+

#565000
1!
1+
b111001 ;

#570000
0!
0+

#575000
1!
1+
b111010 ;

#580000
0!
0+

#585000
1!
1+
b111011 ;

#590000
0!
0+

#595000
1!
1+
b111100 ;

#600000
0!
0+

#605000
1!
1+
b111101 ;

#610000
0!
0+

#615000
1!
1+
b111110 ;

#620000
0!
0+

#625000
1!
1+
b111111 ;

#630000
0!
0+

#635000
1!
1+
b1000000 ;

#640000
0!
0+

#645000
1!
1+
b1000001 ;

#650000
0!
0+

#655000
1!
1+
b1000010 ;

#660000
0!
0+

#665000
1!
1+
b1000011 ;

#670000
0!
0+

#675000
1!
1+
b1000100 ;

#680000
0!
0+

#685000
1!
1+
b1000101 ;

#690000
0!
0+

#695000
1!
1+
b1000110 ;

#700000
0!
0+

#705000
1!
1+
b1000111 ;

#710000
0!
0+

#715000
1!
1+
b1001000 ;

#720000
0!
0+

#725000
1!
1+
b1001001 ;

#730000
0!
0+

#735000
1!
1+
b1001010 ;

#740000
0!
0+

#745000
1!
1+
b1001011 ;

#750000
0!
0+

#755000
1!
1+
b1001100 ;

#760000
0!
0+

#765000
1!
1+
b1001101 ;

#770000
0!
0+

#775000
1!
1+
b1001110 ;

#780000
0!
0+

#785000
1!
1+
b1001111 ;

#790000
0!
0+

#795000
1!
1+
b1010000 ;
0<
b0 =
b11111111111111111111111111111111 >
b1010101 @

#800000
0!
0"
0+
0,
b1 ?

#805000
1!
1+
03

#810000
0!
0+
b10 ?

#815000
1!
1+
04

#820000
0!
0+
b11 ?

#825000
1!
1+
05
b0 6
b1111111 8

#830000
0!
0+
b100 ?

#835000
1!
1+
b1 6
b111111 8

#840000
0!
0+
b101 ?

#845000
1!
1+
b10 6
b11111 8

#850000
0!
0+
b110 ?

#855000
1!
1+
b11 6
b1111 8

#860000
0!
0+
b111 ?

#865000
1!
1+
b100 6
b111 8

#870000
0!
0+
b1000 ?

#875000
1!
1+
b101 6
b11 8

#880000
0!
0+
b1001 ?

#885000
1!
1+
b110 6
b1 8

#890000
0!
0+
b1010 ?

#895000
1!
1+
b111 6
17
b0 8

#900000
0!
0+
b1011 ?

#905000
1!
b0 (
1+
b0 0
b1111 1
02
b1000 6
b0 9

#910000
0!
0+
b1100 ?

#915000
1!
1+
b1110 1
b1001 6

#920000
0!
0+
b1101 ?

#925000
1!
1+
b1101 1
b1010 6

#930000
0!
0+
b1110 ?

#935000
1!
1+
b1100 1
b1011 6

#940000
0!
0+
b1111 ?

#945000
1!
1+
b1011 1
b1100 6

#950000
0!
0+
1<
b1 =
b0 >
b10000 ?
b0 A

#955000
1!
1+
b1010 1
b1101 6

#960000
0!
1"
0+
1,
b1 ?

#965000
1!
1+
b1001 1
13
b1110 6

#970000
0!
0+
b10 ?

#975000
1!
1+
b1000 1
14
b1111 6

#980000
0!
0+
b11 ?

#985000
1!
1+
b111 1
15
b0 6

#990000
0!
0+
b100 ?

#995000
1!
1+
b110 1
b1 6
07

#1000000
0!
0+
b101 ?

#1005000
1!
1+
b101 1
b10 6

#1010000
0!
0+
b110 ?

#1015000
1!
1+
b100 1
b11 6

#1020000
0!
0+
b111 ?

#1025000
1!
1+
b11 1
b100 6

#1030000
0!
0+
b1000 ?

#1035000
1!
1+
b10 1
b101 6

#1040000
0!
0+
b1001 ?

#1045000
1!
1+
b1 1
b110 6

#1050000
0!
0+
b1010 ?

#1055000
1!
1+
b0 1
12
b111 6

#1060000
0!
0+
b1011 ?

#1065000
1!
b1 (
b0 )
1*
1+
b1 0
b1111 1
02
b1000 6
b10000000 8
b1 9

#1066000
b0 9

#1070000
0!
0+
b1100 ?

#1075000
1!
1+
b1110 1
b1001 6

#1080000
0!
0+
b1101 ?

#1085000
1!
1+
b1101 1
b1010 6

#1090000
0!
0+
b1110 ?

#1095000
1!
1+
b1100 1
b1011 6

#1100000
0!
0+
b1111 ?

#1105000
1!
1+
b1011 1
b1100 6

#1110000
0!
0+
0<
b1 >
b10000 ?
b1 A

#1115000
1!
1+
b1010 1
b1101 6

#1120000
0!
0"
0+
0,
b1 ?

#1125000
1!
1+
b1001 1
03
b1110 6

#1130000
0!
0+
b10 ?

#1135000
1!
1+
b1000 1
04
b1111 6

#1140000
0!
0+
b11 ?

#1145000
1!
1+
b111 1
05
b0 6

#1150000
0!
0+
b100 ?

#1155000
1!
1+
b110 1
b1 6

#1160000
0!
0+
b101 ?

#1165000
1!
1+
b101 1
b10 6

#1170000
0!
0+
b110 ?

#1175000
1!
1+
b100 1
b11 6

#1180000
0!
0+
b111 ?

#1185000
1!
1+
b11 1
b100 6

#1190000
0!
0+
b1000 ?

#1195000
1!
1+
b10 1
b101 6

#1200000
0!
0+
b1001 ?

#1205000
1!
1+
b1 1
b110 6

#1210000
0!
0+
b1010 ?

#1215000
1!
1+
b0 1
12
b111 6
17

#1220000
0!
0+
b1011 ?

#1225000
1!
b10 (
b1 )
0*
1+
b10 0
b1111 1
02
b1000 6
b1000000 8
b10 9

#1226000
b1 9

#1230000
0!
0+
b1100 ?

#1235000
1!
1+
b1110 1
b1001 6

#1240000
0!
0+
b1101 ?

#1245000
1!
1+
b1101 1
b1010 6

#1250000
0!
0+
b1110 ?

#1255000
1!
1+
b1100 1
b1011 6

#1260000
0!
0+
b1111 ?

#1265000
1!
1+
b1011 1
b1100 6

#1270000
0!
0+
1<
b10 >
b10000 ?
b10 A

#1275000
1!
1+
b1010 1
b1101 6

#1280000
0!
1"
0+
1,
b1 ?

#1285000
1!
1+
b1001 1
13
b1110 6

#1290000
0!
0+
b10 ?

#1295000
1!
1+
b1000 1
14
b1111 6

#1300000
0!
0+
b11 ?

#1305000
1!
1+
b111 1
15
b0 6

#1310000
0!
0+
b100 ?

#1315000
1!
1+
b110 1
b1 6
07

#1320000
0!
0+
b101 ?

#1325000
1!
1+
b101 1
b10 6

#1330000
0!
0+
b110 ?

#1335000
1!
1+
b100 1
b11 6

#1340000
0!
0+
b111 ?

#1345000
1!
1+
b11 1
b100 6

#1350000
0!
0+
b1000 ?

#1355000
1!
1+
b10 1
b101 6

#1360000
0!
0+
b1001 ?

#1365000
1!
1+
b1 1
b110 6

#1370000
0!
0+
b1010 ?

#1375000
1!
1+
b0 1
12
b111 6

#1380000
0!
0+
b1011 ?

#1385000
1!
b11 (
b10 )
1*
1+
b11 0
b1111 1
02
b1000 6
b10100000 8
b11 9

#1386000
b10 9

#1390000
0!
0+
b1100 ?

#1395000
1!
1+
b1110 1
b1001 6

#1400000
0!
0+
b1101 ?

#1405000
1!
1+
b1101 1
b1010 6

#1410000
0!
0+
b1110 ?

#1415000
1!
1+
b1100 1
b1011 6

#1420000
0!
0+
b1111 ?

#1425000
1!
1+
b1011 1
b1100 6

#1430000
0!
0+
0<
b11 >
b10000 ?
b11 A

#1435000
1!
1+
b1010 1
b1101 6

#1440000
0!
0"
0+
0,
b1 ?

#1445000
1!
1+
b1001 1
03
b1110 6

#1450000
0!
0+
b10 ?

#1455000
1!
1+
b1000 1
04
b1111 6

#1460000
0!
0+
b11 ?

#1465000
1!
1+
b111 1
05
b0 6

#1470000
0!
0+
b100 ?

#1475000
1!
1+
b110 1
b1 6

#1480000
0!
0+
b101 ?

#1485000
1!
1+
b101 1
b10 6

#1490000
0!
0+
b110 ?

#1495000
1!
1+
b100 1
b11 6

#1500000
0!
0+
b111 ?

#1505000
1!
1+
b11 1
b100 6

#1510000
0!
0+
b1000 ?

#1515000
1!
1+
b10 1
b101 6

#1520000
0!
0+
b1001 ?

#1525000
1!
1+
b1 1
b110 6

#1530000
0!
0+
b1010 ?

#1535000
1!
1+
b0 1
12
b111 6
17

#1540000
0!
0+
b1011 ?

#1545000
1!
b100 (
b11 )
0*
1+
b100 0
b1111 1
02
b1000 6
b1010000 8
b100 9

#1546000
b11 9

#1550000
0!
0+
b1100 ?

#1555000
1!
1+
b1110 1
b1001 6

#1560000
0!
0+
b1101 ?

#1565000
1!
1+
b1101 1
b1010 6

#1570000
0!
0+
b1110 ?

#1575000
1!
1+
b1100 1
b1011 6

#1580000
0!
0+
b1111 ?

#1585000
1!
1+
b1011 1
b1100 6

#1590000
0!
0+
1<
b100 >
b10000 ?
b100 A

#1595000
1!
1+
b1010 1
b1101 6

#1600000
0!
1"
0+
1,
b1 ?

#1605000
1!
1+
b1001 1
13
b1110 6

#1610000
0!
0+
b10 ?

#1615000
1!
1+
b1000 1
14
b1111 6

#1620000
0!
0+
b11 ?

#1625000
1!
1+
b111 1
15
b0 6

#1630000
0!
0+
b100 ?

#1635000
1!
1+
b110 1
b1 6
07

#1640000
0!
0+
b101 ?

#1645000
1!
1+
b101 1
b10 6

#1650000
0!
0+
b110 ?

#1655000
1!
1+
b100 1
b11 6

#1660000
0!
0+
b111 ?

#1665000
1!
1+
b11 1
b100 6

#1670000
0!
0+
b1000 ?

#1675000
1!
1+
b10 1
b101 6

#1680000
0!
0+
b1001 ?

#1685000
1!
1+
b1 1
b110 6

#1690000
0!
0+
b1010 ?

#1695000
1!
1+
b0 1
12
b111 6

#1700000
0!
0+
b1011 ?

#1705000
1!
b101 (
b100 )
1*
1+
b101 0
b1111 1
02
b1000 6
b10101000 8
b101 9

#1706000
b100 9

#1710000
0!
0+
b1100 ?

#1715000
1!
1+
b1110 1
b1001 6

#1720000
0!
0+
b1101 ?

#1725000
1!
1+
b1101 1
b1010 6

#1730000
0!
0+
b1110 ?

#1735000
1!
1+
b1100 1
b1011 6

#1740000
0!
0+
b1111 ?

#1745000
1!
1+
b1011 1
b1100 6

#1750000
0!
0+
0<
b101 >
b10000 ?
b101 A

#1755000
1!
1+
b1010 1
b1101 6

#1760000
0!
0"
0+
0,
b1 ?

#1765000
1!
1+
b1001 1
03
b1110 6

#1770000
0!
0+
b10 ?

#1775000
1!
1+
b1000 1
04
b1111 6

#1780000
0!
0+
b11 ?

#1785000
1!
1+
b111 1
05
b0 6

#1790000
0!
0+
b100 ?

#1795000
1!
1+
b110 1
b1 6

#1800000
0!
0+
b101 ?

#1805000
1!
1+
b101 1
b10 6

#1810000
0!
0+
b110 ?

#1815000
1!
1+
b100 1
b11 6

#1820000
0!
0+
b111 ?

#1825000
1!
1+
b11 1
b100 6

#1830000
0!
0+
b1000 ?

#1835000
1!
1+
b10 1
b101 6

#1840000
0!
0+
b1001 ?

#1845000
1!
1+
b1 1
b110 6

#1850000
0!
0+
b1010 ?

#1855000
1!
1+
b0 1
12
b111 6
17

#1860000
0!
0+
b1011 ?

#1865000
1!
b110 (
b101 )
0*
1+
b110 0
b1111 1
02
b1000 6
b1010100 8
b110 9

#1866000
b101 9

#1870000
0!
0+
b1100 ?

#1875000
1!
1+
b1110 1
b1001 6

#1880000
0!
0+
b1101 ?

#1885000
1!
1+
b1101 1
b1010 6

#1890000
0!
0+
b1110 ?

#1895000
1!
1+
b1100 1
b1011 6

#1900000
0!
0+
b1111 ?

#1905000
1!
1+
b1011 1
b1100 6

#1910000
0!
0+
1<
b110 >
b10000 ?
b110 A

#1915000
1!
1+
b1010 1
b1101 6

#1920000
0!
1"
0+
1,
b1 ?

#1925000
1!
1+
b1001 1
13
b1110 6

#1930000
0!
0+
b10 ?

#1935000
1!
1+
b1000 1
14
b1111 6

#1940000
0!
0+
b11 ?

#1945000
1!
1+
b111 1
15
b0 6

#1950000
0!
0+
b100 ?

#1955000
1!
1+
b110 1
b1 6
07

#1960000
0!
0+
b101 ?

#1965000
1!
1+
b101 1
b10 6

#1970000
0!
0+
b110 ?

#1975000
1!
1+
b100 1
b11 6

#1980000
0!
0+
b111 ?

#1985000
1!
1+
b11 1
b100 6

#1990000
0!
0+
b1000 ?

#1995000
1!
1+
b10 1
b101 6

#2000000
0!
0+
b1001 ?

#2005000
1!
1+
b1 1
b110 6

#2010000
0!
0+
b1010 ?

#2015000
1!
1+
b0 1
12
b111 6

#2020000
0!
0+
b1011 ?

#2025000
1!
b111 (
b110 )
1*
1+
b111 0
b1111 1
02
b1000 6
b10101010 8
b111 9

#2026000
b110 9

#2030000
0!
0+
b1100 ?

#2035000
1!
1+
b1110 1
b1001 6

#2040000
0!
0+
b1101 ?

#2045000
1!
1+
b1101 1
b1010 6

#2050000
0!
0+
b1110 ?

#2055000
1!
1+
b1100 1
b1011 6

#2060000
0!
0+
b1111 ?

#2065000
1!
1+
b1011 1
b1100 6

#2070000
0!
0+
0<
b111 >
b10000 ?
b111 A

#2075000
1!
1+
b1010 1
b1101 6

#2080000
0!
0"
0+
0,
b1 ?

#2085000
1!
1+
b1001 1
03
b1110 6

#2090000
0!
0+
b10 ?

#2095000
1!
1+
b1000 1
04
b1111 6

#2100000
0!
0+
b11 ?

#2105000
1!
1+
b111 1
05
b0 6

#2110000
0!
0+
b100 ?

#2115000
1!
1+
b110 1
b1 6

#2120000
0!
0+
b101 ?

#2125000
1!
1+
b101 1
b10 6

#2130000
0!
0+
b110 ?

#2135000
1!
1+
b100 1
b11 6

#2140000
0!
0+
b111 ?

#2145000
1!
1+
b11 1
b100 6

#2150000
0!
0+
b1000 ?

#2155000
1!
1+
b10 1
b101 6

#2160000
0!
0+
b1001 ?

#2165000
1!
1+
b1 1
b110 6

#2170000
0!
0+
b1010 ?

#2175000
1!
1+
b0 1
12
b111 6
17

#2180000
0!
0+
b1011 ?

#2185000
1!
b1000 (
b111 )
0*
1+
b1000 0
b1111 1
02
b1000 6
b1010101 8
b1000 9

#2186000
b111 9

#2190000
0!
0+
b1100 ?

#2195000
1!
1+
b1110 1
b1001 6

#2200000
0!
0+
b1101 ?

#2205000
1!
1+
b1101 1
b1010 6

#2210000
0!
0+
b1110 ?

#2215000
1!
1+
b1100 1
b1011 6

#2220000
0!
0+
b1111 ?

#2225000
1!
1+
b1011 1
b1100 6

#2230000
0!
0+
1<
b10 =
b11111111111111111111111111111111 >
b10000 ?
b1000 A

#2235000
1!
1+
b1010 1
b1101 6

#2240000
0!
1"
0+
1,
b1 ?

#2245000
1!
1+
b1001 1
13
b1110 6

#2250000
0!
0+
b10 ?

#2255000
1!
1+
b1000 1
14
b1111 6

#2260000
0!
0+
b11 ?

#2265000
1!
1+
b111 1
15
b0 6

#2270000
0!
0+
b100 ?

#2275000
1!
1+
b110 1
b1 6
07

#2280000
0!
0+
b101 ?

#2285000
1!
1+
b101 1
b10 6

#2290000
0!
0+
b110 ?

#2295000
1!
1+
b100 1
b11 6

#2300000
0!
0+
b111 ?

#2305000
1!
1+
b11 1
b100 6

#2310000
0!
0+
b1000 ?

#2315000
1!
1+
b10 1
b101 6

#2320000
0!
0+
b1001 ?

#2325000
1!
1+
b1 1
b110 6

#2330000
0!
0+
b1010 ?

#2335000
1!
1+
b0 1
12
b111 6

#2340000
0!
0+
b1011 ?

#2345000
1!
1#
b1010101 $
b1 &
b1010101 '
b1001 (
1+
1-
b1010101 .
b1001 0
b1000 6
b1001 9

#2350000
0!
0+
b1100 ?

#2355000
1!
0#
b1111 (
1+
0-
b1111 0
b1001 6
b10101010 8
b1111 9

#2360000
0!
0+
b1101 ?

#2365000
1!
1+
b1010 6
b11010101 8

#2370000
0!
0+
b1110 ?

#2375000
1!
1+
b1011 6
b11101010 8

#2380000
0!
0+
b1111 ?

#2385000
1!
1+
b1100 6
b11110101 8

#2390000
0!
0+
b100000 :
b0 ;
b10000 ?
b1010101 B

#2395000
1!
1+
b1101 6
b11111010 8
b1 ;

#2400000
0!
0+

#2405000
1!
1+
b1110 6
b11111101 8
b10 ;

#2410000
0!
0+

#2415000
1!
1+
b1111 6
b11111110 8
b11 ;

#2420000
0!
0+

#2425000
1!
1+
b10000 6
b11111111 8
b100 ;

#2430000
0!
0+

#2435000
1!
1+
b10001 6
b101 ;

#2440000
0!
0+

#2445000
1!
1+
b10010 6
b110 ;

#2450000
0!
0+

#2455000
1!
1+
b10011 6
b111 ;

#2460000
0!
0+

#2465000
1!
1+
b10100 6
b1000 ;

#2470000
0!
0+

#2475000
1!
1+
b10101 6
b1001 ;

#2480000
0!
0+

#2485000
1!
1+
b10110 6
b1010 ;

#2490000
0!
0+

#2495000
1!
1+
b10111 6
b1011 ;

#2500000
0!
0+

#2505000
1!
1+
b11000 6
b1100 ;

#2510000
0!
0+

#2515000
1!
1+
b11001 6
b1101 ;

#2520000
0!
0+

#2525000
1!
1+
b11010 6
b1110 ;

#2530000
0!
0+

#2535000
1!
1+
b11011 6
b1111 ;

#2540000
0!
0+

#2545000
1!
1+
b11100 6
b10000 ;

#2550000
0!
0+

#2555000
1!
1+
b11101 6
b10001 ;

#2560000
0!
0+

#2565000
1!
1+
b11110 6
b10010 ;

#2570000
0!
0+

#2575000
1!
1+
b11111 6
b10011 ;

#2580000
0!
0+

#2585000
1!
1+
b10100 ;

#2590000
0!
0+

#2595000
1!
1+
b10101 ;

#2600000
0!
0+

#2605000
1!
1+
b10110 ;

#2610000
0!
0+

#2615000
1!
1+
b10111 ;

#2620000
0!
0+

#2625000
1!
1+
b11000 ;

#2630000
0!
0+

#2635000
1!
1+
b11001 ;

#2640000
0!
0+

#2645000
1!
1+
b11010 ;

#2650000
0!
0+

#2655000
1!
1+
b11011 ;

#2660000
0!
0+

#2665000
1!
1+
b11100 ;

#2670000
0!
0+

#2675000
1!
1+
b11101 ;

#2680000
0!
0+

#2685000
1!
1+
b11110 ;

#2690000
0!
0+

#2695000
1!
1+
b11111 ;

#2700000
0!
0+

#2705000
1!
1+
b100000 ;
